/home/sony/workspace/SerializationTest/src/main/java/com/sony/rnd/serializationtest/EventAvroTest.java
/home/sony/workspace/SerializationTest/src/main/java/com/sony/rnd/serializationtest/HadoopEventFileReadTest.java
/home/sony/workspace/SerializationTest/src/main/java/com/sony/rnd/serializationtest/NPEventDailyAgg.java
/home/sony/workspace/SerializationTest/src/main/java/com/sony/rnd/serializationtest/HadoopEventFileConvertToAvroMapper.java
/home/sony/workspace/SerializationTest/src/main/java/com/sony/rnd/serializationtest/User.java
/home/sony/workspace/SerializationTest/src/main/java/com/sony/rnd/serializationtest/EventThriftTest.java
/home/sony/workspace/SerializationTest/src/main/java/com/sony/rnd/serializationtest/App.java
/home/sony/workspace/SerializationTest/src/main/java/com/sony/snei/npevent/ConvertEventTextStreamToAvro.java
/home/sony/workspace/SerializationTest/src/main/java/com/sony/rnd/serializationtest/HadoopEventFileConvertToAvro.java
/home/sony/workspace/SerializationTest/src/main/java/com/sony/rnd/serializationtest/EventJSONTest.java
/home/sony/workspace/SerializationTest/src/main/java/com/sony/snei/npevent/ListS3Objects.java
/home/sony/workspace/SerializationTest/src/main/java/com/sony/rnd/serializationtest/SnappyFileDecompress.java
/home/sony/workspace/SerializationTest/src/main/java/com/sony/snei/npevent/NPEvent.java
/home/sony/workspace/SerializationTest/src/main/java/com/sony/rnd/serializationtest/NPEventNVPThrift.java
/home/sony/workspace/SerializationTest/src/main/java/com/sony/snei/npevent/GetS3Object.java
/home/sony/workspace/SerializationTest/src/main/java/com/sony/rnd/serializationtest/EventThriftReadTest.java
/home/sony/workspace/SerializationTest/src/main/java/com/sony/rnd/serializationtest/NPEventNVP.java
/home/sony/workspace/SerializationTest/src/main/java/com/sony/snei/npevent/ConvertS3DirectoryToAvro.java
